Data tools used at the Economic Policy Institute • epidatatools
…
Download IPUMS microdata

Requires valid IPUMS API key stored in the .Renviron as IPUMS_API_KEY.

# First make sure you have a valid IPUMS API key stored in your .Renviron file as `IPUMS_API_KEY`.

# CPS ASEC microdata
dl_ipums_asec(2021:2022, c("YEAR", "OFFPOV", "ASECWT"))

#> DDI codebook file saved to /tmp/RtmpGaUUhf/cps_00161.xml
#> Data file saved to /tmp/RtmpGaUUhf/cps_00161.dat.gz
#> Use of data from IPUMS CPS is subject to conditions including that users should cite the data appropriately. Use command `ipums_conditions()` for more details.
#> # A tibble: 316,275 × 11
#>     YEAR SERIAL MONTH       CPSID ASECFLAG ASECWTH PERNUM  CPSIDP  CPSIDV ASECWT
#>    <dbl>  <dbl> <int+lbl>   <dbl> <int+lb>   <dbl>  <dbl>   <dbl>   <dbl>  <dbl>
#>  1  2021      1 3 [March] 2.02e13 1 [ASEC]    706.      1 2.02e13 2.02e14   706.
#>  2  2021      1 3 [March] 2.02e13 1 [ASEC]    706.      2 2.02e13 2.02e14   706.
#>  3  2021      1 3 [March] 2.02e13 1 [ASEC]    706.      3 2.02e13 2.02e14   608.
#>  4  2021      2 3 [March] 2.02e13 1 [ASEC]   1537.      1 2.02e13 2.02e14  1537.
#>  5  2021      2 3 [March] 2.02e13 1 [ASEC]   1537.      2 2.02e13 2.02e14  1537.
#>  6  2021      2 3 [March] 2.02e13 1 [ASEC]   1537.      3 2.02e13 2.02e14  2119.
#>  7  2021      3 3 [March] 2.02e13 1 [ASEC]   1499.      1 2.02e13 2.02e14  1499.
#>  8  2021      8 3 [March] 2.02e13 1 [ASEC]    948.      1 2.02e13 2.02e14   948.
#>  9  2021      8 3 [March] 2.02e13 1 [ASEC]    948.      2 2.02e13 2.02e14  1225.
#> 10  2021      8 3 [March] 2.02e13 1 [ASEC]    948.      3 2.02e13 2.02e14   948.
#> # ℹ 316,265 more rows
#> # ℹ 1 more variable: OFFPOV <int+lbl>
…
