Retrieve data from the FRED API — get_fred • epidatatools
…
metadata
Flag for additional metadata

fred_api_key
FRED API key (defaults to FRED_API_KEY environment variable)

    Value

    A tibble

    Examples

get_fred("UNRATE")
#> # A tibble: 935 × 7
#>    series_id series_title      date_frequency date        year month value
#>    <chr>     <chr>             <chr>          <date>     <dbl> <dbl> <dbl>
#>  1 UNRATE    Unemployment Rate month          1948-01-01  1948     1   3.4
#>  2 UNRATE    Unemployment Rate month          1948-02-01  1948     2   3.8
#>  3 UNRATE    Unemployment Rate month          1948-03-01  1948     3   4  
#>  4 UNRATE    Unemployment Rate month          1948-04-01  1948     4   3.9
#>  5 UNRATE    Unemployment Rate month          1948-05-01  1948     5   3.5
#>  6 UNRATE    Unemployment Rate month          1948-06-01  1948     6   3.6
#>  7 UNRATE    Unemployment Rate month          1948-07-01  1948     7   3.6
#>  8 UNRATE    Unemployment Rate month          1948-08-01  1948     8   3.9
#>  9 UNRATE    Unemployment Rate month          1948-09-01  1948     9   3.8
#> 10 UNRATE    Unemployment Rate month          1948-10-01  1948    10   3.7
#> # ℹ 925 more rows
…
